month,Durchfall
2004-01,15
2004-02,19
2004-03,16
2004-04,17
2004-05,16
2004-06,20
2004-07,23
2004-08,27
2004-09,23
2004-10,21
2004-11,21
2004-12,19
2005-01,22
2005-02,19
2005-03,19
2005-04,21
2005-05,19
2005-06,22
2005-07,25
2005-08,23
2005-09,21
2005-10,21
2005-11,19
2005-12,21
2006-01,23
2006-02,23
2006-03,26
2006-04,22
2006-05,22
2006-06,24
2006-07,29
2006-08,28
2006-09,27
2006-10,23
2006-11,21
2006-12,23
2007-01,23
2007-02,28
2007-03,22
2007-04,26
2007-05,28
2007-06,29
2007-07,27
2007-08,28
2007-09,27
2007-10,29
2007-11,27
2007-12,30
2008-01,29
2008-02,31
2008-03,27
2008-04,27
2008-05,28
2008-06,29
2008-07,30
2008-08,31
2008-09,26
2008-10,27
2008-11,27
2008-12,30
2009-01,29
2009-02,29
2009-03,31
2009-04,29
2009-05,28
2009-06,27
2009-07,32
2009-08,36
2009-09,30
2009-10,29
2009-11,29
2009-12,28
2010-01,29
2010-02,31
2010-03,29
2010-04,29
2010-05,30
2010-06,32
2010-07,38
2010-08,36
2010-09,32
2010-10,30
2010-11,30
2010-12,28
2011-01,41
2011-02,41
2011-03,45
2011-04,43
2011-05,61
2011-06,62
2011-07,52
2011-08,53
2011-09,49
2011-10,47
2011-11,47
2011-12,52
2012-01,50
2012-02,52
2012-03,53
2012-04,50
2012-05,53
2012-06,54
2012-07,56
2012-08,63
2012-09,60
2012-10,56
2012-11,56
2012-12,59
2013-01,54
2013-02,57
2013-03,60
2013-04,60
2013-05,56
2013-06,58
2013-07,69
2013-08,72
2013-09,64
2013-10,61
2013-11,59
2013-12,65
2014-01,63
2014-02,66
2014-03,68
2014-04,67
2014-05,62
2014-06,69
2014-07,74
2014-08,74
2014-09,69
2014-10,68
2014-11,67
2014-12,72
2015-01,71
2015-02,72
2015-03,72
2015-04,74
2015-05,73
2015-06,74
2015-07,85
2015-08,88
2015-09,77
2015-10,73
2015-11,71
2015-12,75
2016-01,74
2016-02,77
2016-03,80
2016-04,74
2016-05,76
2016-06,76
2016-07,85
2016-08,89
2016-09,80
2016-10,75
2016-11,78
2016-12,87
2017-01,75
2017-02,81
2017-03,80
2017-04,75
2017-05,74
2017-06,81
2017-07,86
2017-08,85
2017-09,77
2017-10,73
2017-11,74
2017-12,78
2018-01,78
2018-02,82
2018-03,83
2018-04,79
2018-05,80
2018-06,86
2018-07,95
2018-08,100
2018-09,83
2018-10,81
2018-11,80
2018-12,86
2019-01,79
2019-02,81
2019-03,80
2019-04,78
2019-05,76
2019-06,87
2019-07,91
2019-08,93
2019-09,85
2019-10,84
2019-11,80
2019-12,85
2020-01,81
2020-02,81
2020-03,94
