month,Husten
2004-01,8
2004-02,9
2004-03,9
2004-04,8
2004-05,8
2004-06,7
2004-07,6
2004-08,4
2004-09,6
2004-10,9
2004-11,9
2004-12,12
2005-01,10
2005-02,13
2005-03,11
2005-04,8
2005-05,8
2005-06,8
2005-07,6
2005-08,8
2005-09,7
2005-10,12
2005-11,11
2005-12,12
2006-01,12
2006-02,12
2006-03,12
2006-04,11
2006-05,10
2006-06,10
2006-07,8
2006-08,6
2006-09,9
2006-10,9
2006-11,12
2006-12,12
2007-01,12
2007-02,15
2007-03,14
2007-04,11
2007-05,10
2007-06,8
2007-07,8
2007-08,9
2007-09,11
2007-10,13
2007-11,14
2007-12,15
2008-01,15
2008-02,18
2008-03,13
2008-04,11
2008-05,11
2008-06,9
2008-07,9
2008-08,8
2008-09,10
2008-10,14
2008-11,14
2008-12,18
2009-01,21
2009-02,19
2009-03,14
2009-04,14
2009-05,11
2009-06,10
2009-07,9
2009-08,9
2009-09,11
2009-10,16
2009-11,20
2009-12,18
2010-01,16
2010-02,17
2010-03,16
2010-04,13
2010-05,14
2010-06,10
2010-07,9
2010-08,9
2010-09,14
2010-10,15
2010-11,16
2010-12,19
2011-01,27
2011-02,27
2011-03,25
2011-04,22
2011-05,18
2011-06,14
2011-07,13
2011-08,14
2011-09,17
2011-10,25
2011-11,26
2011-12,30
2012-01,25
2012-02,32
2012-03,30
2012-04,22
2012-05,20
2012-06,18
2012-07,18
2012-08,16
2012-09,21
2012-10,28
2012-11,30
2012-12,34
2013-01,39
2013-02,52
2013-03,36
2013-04,30
2013-05,25
2013-06,21
2013-07,18
2013-08,16
2013-09,23
2013-10,32
2013-11,30
2013-12,32
2014-01,30
2014-02,37
2014-03,39
2014-04,31
2014-05,24
2014-06,23
2014-07,21
2014-08,20
2014-09,26
2014-10,35
2014-11,40
2014-12,50
2015-01,47
2015-02,64
2015-03,46
2015-04,35
2015-05,29
2015-06,25
2015-07,22
2015-08,20
2015-09,30
2015-10,42
2015-11,38
2015-12,43
2016-01,44
2016-02,57
2016-03,57
2016-04,38
2016-05,31
2016-06,25
2016-07,25
2016-08,23
2016-09,27
2016-10,39
2016-11,46
2016-12,57
2017-01,59
2017-02,64
2017-03,45
2017-04,37
2017-05,32
2017-06,25
2017-07,24
2017-08,23
2017-09,34
2017-10,45
2017-11,44
2017-12,53
2018-01,56
2018-02,83
2018-03,70
2018-04,41
2018-05,33
2018-06,25
2018-07,24
2018-08,20
2018-09,29
2018-10,39
2018-11,46
2018-12,55
2019-01,53
2019-02,66
2019-03,53
2019-04,45
2019-05,33
2019-06,28
2019-07,24
2019-08,22
2019-09,33
2019-10,45
2019-11,50
2019-12,55
2020-01,57
2020-02,68
2020-03,100
