month,Kopfschmerzen
2004-01,20
2004-02,17
2004-03,24
2004-04,22
2004-05,18
2004-06,18
2004-07,22
2004-08,24
2004-09,22
2004-10,19
2004-11,22
2004-12,16
2005-01,19
2005-02,18
2005-03,23
2005-04,20
2005-05,18
2005-06,23
2005-07,22
2005-08,26
2005-09,23
2005-10,25
2005-11,24
2005-12,19
2006-01,23
2006-02,23
2006-03,20
2006-04,22
2006-05,23
2006-06,19
2006-07,25
2006-08,23
2006-09,26
2006-10,25
2006-11,22
2006-12,20
2007-01,24
2007-02,26
2007-03,26
2007-04,25
2007-05,23
2007-06,25
2007-07,25
2007-08,26
2007-09,27
2007-10,26
2007-11,23
2007-12,24
2008-01,29
2008-02,26
2008-03,27
2008-04,29
2008-05,23
2008-06,25
2008-07,28
2008-08,26
2008-09,28
2008-10,27
2008-11,26
2008-12,26
2009-01,47
2009-02,29
2009-03,28
2009-04,29
2009-05,28
2009-06,29
2009-07,29
2009-08,30
2009-09,30
2009-10,29
2009-11,36
2009-12,30
2010-01,31
2010-02,32
2010-03,32
2010-04,31
2010-05,31
2010-06,29
2010-07,28
2010-08,32
2010-09,34
2010-10,33
2010-11,32
2010-12,30
2011-01,50
2011-02,49
2011-03,46
2011-04,42
2011-05,45
2011-06,44
2011-07,46
2011-08,48
2011-09,51
2011-10,50
2011-11,50
2011-12,46
2012-01,52
2012-02,54
2012-03,56
2012-04,53
2012-05,52
2012-06,53
2012-07,54
2012-08,55
2012-09,59
2012-10,55
2012-11,57
2012-12,54
2013-01,66
2013-02,69
2013-03,62
2013-04,59
2013-05,58
2013-06,61
2013-07,60
2013-08,65
2013-09,69
2013-10,66
2013-11,66
2013-12,62
2014-01,73
2014-02,74
2014-03,74
2014-04,69
2014-05,67
2014-06,67
2014-07,67
2014-08,71
2014-09,73
2014-10,75
2014-11,80
2014-12,70
2015-01,79
2015-02,85
2015-03,83
2015-04,73
2015-05,71
2015-06,73
2015-07,71
2015-08,76
2015-09,73
2015-10,76
2015-11,77
2015-12,79
2016-01,84
2016-02,90
2016-03,92
2016-04,87
2016-05,76
2016-06,75
2016-07,76
2016-08,74
2016-09,81
2016-10,78
2016-11,78
2016-12,75
2017-01,85
2017-02,89
2017-03,80
2017-04,76
2017-05,75
2017-06,70
2017-07,76
2017-08,77
2017-09,74
2017-10,80
2017-11,80
2017-12,78
2018-01,89
2018-02,93
2018-03,92
2018-04,77
2018-05,73
2018-06,75
2018-07,76
2018-08,77
2018-09,81
2018-10,80
2018-11,84
2018-12,78
2019-01,84
2019-02,90
2019-03,85
2019-04,76
2019-05,79
2019-06,71
2019-07,77
2019-08,76
2019-09,78
2019-10,84
2019-11,81
2019-12,79
2020-01,90
2020-02,90
2020-03,100
